<svg width="192" height="90" viewBox="0 0 192 90" fill="none" xmlns="http://www.w3.org/2000/svg">
<g clip-path="url(#clip0)">
<path d="M0 24.1183H55.9278C46.6016 41.9852 37.3281 59.7412 28.0195 77.5761L0 24.1183Z" fill="white"/>
<path d="M87.6579 2.62666H100.826C98.6286 6.83219 96.4368 11.0114 94.2567 15.2111L87.6579 2.62666Z" fill="white"/>
<path d="M55.565 74.4503H42.3965L48.972 61.8717L55.565 74.4503Z" fill="white"/>
<path d="M142.029 24.1037H127.084C127.213 21.445 127.198 18.8505 127.508 16.2851C127.801 13.7957 129.431 12.0066 131.711 11.1778C135.626 9.75356 139.342 10.3635 142.576 13.0923C143.425 13.8073 144.127 14.7004 144.876 15.5292C145.224 15.9115 145.543 16.3231 145.877 16.7346L151.73 5.51593C150.017 4.11381 148.106 2.972 146.058 2.12758C139.492 -0.583687 132.785 -0.691671 126.086 1.71607C120.64 3.67437 117.114 7.55303 115.2 12.9347C114.062 16.145 113.878 19.4838 113.901 22.8575C113.901 23.2603 113.901 23.6659 113.901 24.1562H106.834V34.9838H113.939V74.4533H127.233V34.9546H136.366C138.253 31.3338 140.14 27.7168 142.029 24.1037Z" fill="white"/>
<path d="M65.2569 2.62666H78.3346V74.4591H65.2569V2.62666Z" fill="white"/>
<path d="M87.6579 24.1504H100.826V74.4504H87.6579V24.1504Z" fill="white"/>
<path d="M178.099 59.5369C173.75 63.7541 168.661 65.2105 162.776 64.0022C157.532 62.9253 151.873 57.6604 151.162 53.0813H191.445C191.48 53.0068 191.508 52.9297 191.53 52.8507C191.683 48.257 191.305 43.7421 189.731 39.3673C187.472 33.1014 183.293 28.5223 177.329 25.6943C171.365 22.8663 165.059 22.4343 158.633 23.8323C153.658 24.915 149.268 27.1652 145.66 30.7432C141.361 34.9239 138.669 40.4762 138.052 46.433C137.232 53.9189 139.515 60.4884 144.463 66.0452C149.476 71.6603 155.967 74.6021 163.417 75.3434C169.666 76.0229 175.972 74.7653 181.478 71.742C182.26 71.3159 183.009 70.8344 183.755 70.3353L178.099 59.5369ZM165.1 34.1462C170.909 34.0382 175.81 37.7388 177.543 42.3179H152.376C153.476 39.2127 158.314 34.2775 165.1 34.1462Z" fill="white"/>
<path d="M65.2569 89.0924L65.7368 88.0038C66.4483 88.5399 67.3149 88.8318 68.2066 88.8356C69.3771 88.8356 69.8629 88.4124 69.8629 87.852C69.8629 86.2206 65.4179 87.2917 65.4179 84.4812C65.4179 83.2612 66.3806 82.2252 68.432 82.2252C69.3079 82.2106 70.1702 82.4433 70.9193 82.8964L70.4833 83.985C69.864 83.6137 69.1573 83.4123 68.4349 83.4013C67.2819 83.4013 66.8108 83.8537 66.8108 84.4257C66.8108 86.0367 71.2441 84.989 71.2441 87.7645C71.2441 88.9727 70.2726 90.0088 68.2213 90.0088C67.039 90 65.8744 89.6352 65.2569 89.0924Z" fill="white"/>
<path d="M72.3795 86.6V82.3332H73.7695V86.5445C73.7695 88.1001 74.4631 88.7684 75.6716 88.7684C76.8802 88.7684 77.562 88.1001 77.562 86.5445V82.3332H78.9286V86.6C78.9286 88.8035 77.7025 90 75.6599 90C73.6174 90 72.3795 88.8035 72.3795 86.6Z" fill="white"/>
<path d="M86.976 85.0211C86.976 86.6846 85.7557 87.7119 83.7892 87.7119H82.1036V89.8891H80.7136V82.3303H83.7892C85.7557 82.3332 86.976 83.3488 86.976 85.0211ZM85.5742 85.0211C85.5742 84.0726 84.9451 83.521 83.7277 83.521H82.1036V86.5241H83.7277C84.9451 86.5241 85.5742 85.9725 85.5742 85.0211Z" fill="white"/>
<path d="M93.8119 88.7217V89.8891H88.2022V82.3303H93.6627V83.4977H89.5922V85.4647H93.2032V86.6321H89.5922V88.7217H93.8119Z" fill="white"/>
<path d="M100.095 89.8891L98.567 87.6769C98.4696 87.6829 98.3719 87.6829 98.2744 87.6769H96.5859V89.8891H95.1988V82.3303H98.2744C100.241 82.3303 101.458 83.3459 101.458 85.0182C101.484 85.5335 101.343 86.0435 101.056 86.4731C100.77 86.9028 100.353 87.2295 99.8663 87.4055L101.587 89.8891H100.095ZM98.213 83.5181H96.5888V86.5329H98.213C99.4332 86.5329 100.062 85.9696 100.062 85.0182C100.062 84.0668 99.4332 83.521 98.213 83.521V83.5181Z" fill="white"/>
<path d="M110.489 88.138H106.749L106.015 89.8891H104.581L107.946 82.3303H109.316L112.693 89.8891H111.229L110.489 88.138ZM110.03 87.0407L108.619 83.737L107.22 87.0407H110.03Z" fill="white"/>
<path d="M119.742 85.0211C119.742 86.6846 118.525 87.7119 116.558 87.7119H114.87V89.8891H113.483V82.3303H116.558C118.516 82.3332 119.742 83.3488 119.742 85.0211ZM118.343 85.0211C118.343 84.0726 117.711 83.521 116.494 83.521H114.87V86.5241H116.494C117.711 86.5241 118.343 85.9725 118.343 85.0211Z" fill="white"/>
<path d="M127.233 85.0211C127.233 86.6846 126.013 87.7119 124.047 87.7119H122.361V89.8891H120.971V82.3303H124.047C126.013 82.3332 127.233 83.3488 127.233 85.0211ZM125.832 85.0211C125.832 84.0726 125.202 83.521 123.985 83.521H122.361V86.5241H123.985C125.202 86.5241 125.832 85.9725 125.832 85.0211Z" fill="white"/>
</g>
<defs>
<clipPath id="clip0">
<rect width="191.56" height="90" fill="white"/>
</clipPath>
</defs>
</svg>
