<svg width="20" height="18" viewBox="0 0 20 18" fill="none" xmlns="http://www.w3.org/2000/svg">
<path d="M14.7143 16.7086V14.9943C14.7143 14.085 14.3531 13.2129 13.7101 12.5699C13.0671 11.927 12.195 11.5657 11.2857 11.5657H4.42857C3.51926 11.5657 2.64719 11.927 2.00421 12.5699C1.36122 13.2129 1 14.085 1 14.9943V16.7086M19 16.7085V14.9942C18.9994 14.2346 18.7466 13.4966 18.2812 12.8962C17.8158 12.2958 17.1641 11.867 16.4286 11.6771M13 1.39136C13.7375 1.58019 14.3912 2.0091 14.858 2.61048C15.3248 3.21186 15.5782 3.9515 15.5782 4.71279C15.5782 5.47407 15.3248 6.21371 14.858 6.81509C14.3912 7.41647 13.7375 7.84539 13 8.03421M11.2857 4.7086C11.2857 6.60215 9.75069 8.13717 7.85714 8.13717C5.9636 8.13717 4.42857 6.60215 4.42857 4.7086C4.42857 2.81505 5.9636 1.28003 7.85714 1.28003C9.75069 1.28003 11.2857 2.81505 11.2857 4.7086Z" stroke="#9FB3C8" stroke-width="2" stroke-linecap="round" stroke-linejoin="round"/>
</svg>
